{
  "name": "Automark User Directory",
  "description": "This is automark user directory",
  "favicon": {
    "path": "favicon.ico",
    "maxAge": 86400000
  },
  "public": {
    "path": "./public",
    "maxAge": 60000
  }
}